digraph G1 {
i0;
i1;
i2;
i3;
i4;
i5;
i0 ->  i3 [label= "raw1"];
i0 ->  i2 [label= "raw1"];
i0 ->  i1 [label= "war0"];
i3 ->  i4 [label= "raw1"];
i4 ->  i5 [label= "control0"];
i2 ->  i4 [label= "mem1"];
i1 ->  i3 [label= "raw1"];
}
